<svg role="img" viewBox="0 0 24 24" xmlns="http://www.w3.org/2000/svg">
  <!-- Some from: https://simpleicons.org/ -->
  <defs>

    <symbol id="cc-by-nc-sa" viewBox="0 0 72 24">
      <title>CC BY-NC-SA 4.0</title>
      <path class="by" d="m 12.260246,0 c 3.370821,0 6.214027,1.1568569 8.528491,3.4713206 2.32759,2.3287136 3.492696,5.1715441 3.492696,8.5284914 0,3.371573 -1.143358,6.178778 -3.429322,8.420868 C 18.42365,22.806393 15.55982,24 12.260247,24 9.0169231,24 6.2029681,22.820268 3.8176286,20.46343 1.4607905,18.106217 0.2818089,15.285886 0.2818089,11.999812 c 0,-3.2853234 1.1789816,-6.1281539 3.5358197,-8.5281164 C 6.1320931,1.1568569 8.9456721,0 12.260246,0 Z m 0.04275,2.1644661 c -2.7284559,0 -5.0354199,0.95736 -6.9212656,2.8713301 C 3.4242597,7.0360148 2.4459,9.3576035 2.4459,12.000187 c 0,2.656833 0.9712347,4.957423 2.9137042,6.898767 1.9428429,1.943595 4.2569339,2.914079 6.9426398,2.914079 2.671084,0 4.999797,-0.977234 6.98539,-2.935454 1.885846,-1.814221 2.828581,-4.106186 2.828581,-6.878141 0,-2.7284581 -0.95736,-5.0492968 -2.870955,-6.9640168 C 17.331666,3.1218261 15.017202,2.1644661 12.302993,2.1644661 Z m 3.214451,6.8567677 v 4.9067982 h -1.370979 v 5.827784 h -3.72894 V 13.928407 H 9.0465481 V 9.0212338 c 0,-0.2144967 0.075,-0.3963688 0.224621,-0.5463665 0.150373,-0.1496226 0.33262,-0.2249965 0.546367,-0.2249965 h 4.9289209 c 0.199496,0 0.378743,0.074999 0.535493,0.2249965 0.156371,0.1499977 0.235494,0.3322448 0.235494,0.5463665 z M 10.609898,5.9357821 c 0,-1.1279824 0.556866,-1.6927235 1.671721,-1.6927235 1.114859,0 1.671349,0.5639912 1.671349,1.6927235 0,1.1141075 -0.557241,1.6713488 -1.671349,1.6713488 -1.114107,0 -1.671722,-0.5572413 -1.671721,-1.6713488 z"/>
      <path class="nc" d="m 36.071623,1.878e-4 c 3.371197,0 6.214401,1.1568569 8.528867,3.4709458 2.327963,2.3140888 3.49307,5.1569192 3.49307,8.5288664 0,3.372323 -1.142607,6.178779 -3.429321,8.421993 -2.428839,2.384963 -5.292292,3.577819 -8.592616,3.577819 -3.257198,0 -6.070781,-1.185731 -8.441868,-3.556444 C 25.273292,18.085779 24.093935,15.271825 24.093935,12 c 0,-3.2856986 1.179357,-6.128529 3.536196,-8.5284914 2.313713,-2.3140889 5.127668,-3.4713208 8.441492,-3.4713208 z m -9.277731,8.7643629 c -0.356992,0.9854845 -0.535866,2.0643433 -0.535866,3.2358243 0,2.657583 0.971235,4.957422 2.913705,6.899518 1.957093,1.929719 4.271556,2.894204 6.94264,2.894204 2.699957,0 5.028298,-0.97836 6.986517,-2.936205 0.699737,-0.670864 1.249481,-1.370978 1.648848,-2.101091 l -4.521301,-2.014094 c -0.158248,0.757863 -0.539617,1.374729 -1.146358,1.852471 -0.608617,0.478868 -1.325604,0.754863 -2.153967,0.825362 v 1.842722 H 35.535006 V 17.42054 c -1.328604,-0.01388 -2.542835,-0.492367 -3.642692,-1.435477 l 1.6496,-1.67135 c 0.785612,0.728614 1.678849,1.092734 2.678958,1.092734 0.413993,0 0.768362,-0.09225 1.061232,-0.278996 0.292869,-0.184872 0.439492,-0.491617 0.439492,-0.921361 0,-0.30037 -0.106873,-0.542241 -0.32137,-0.728238 l -1.15648,-0.492742 -1.414104,-0.643115 -1.90722,-0.835862 z m 9.321229,-6.6216464 c -2.728081,0 -5.03542,0.9641099 -6.921266,2.8927048 -0.471743,0.4717426 -0.914237,1.0079842 -1.328605,1.6075998 l 4.585806,2.0568428 c 0.199496,-0.6288651 0.57824,-1.1321073 1.135482,-1.5104764 0.556491,-0.3783691 1.207105,-0.5887408 1.950344,-0.63224 V 4.7134892 h 1.393103 v 1.8434711 c 1.100233,0.056999 2.099968,0.4286182 2.999954,1.1141075 L 38.365462,9.2782926 C 37.693098,8.806925 37.008359,8.5710537 36.308245,8.5710537 c -0.371619,0 -0.703864,0.071624 -0.995985,0.2144966 -0.292869,0.1428728 -0.439492,0.385494 -0.439492,0.7282387 0,0.1001231 0.03562,0.1998718 0.106874,0.2999953 l 1.521351,0.6862397 1.050734,0.471367 1.928595,0.856862 6.148778,2.742331 c 0.200622,-0.842986 0.300745,-1.699098 0.300745,-2.570959 0,-2.7573318 -0.957734,-5.0785455 -2.870579,-6.9647659 -1.901222,-1.9278449 -4.21606,-2.8919548 -6.944145,-2.8919548 z"/>
      <path class="sa" d="m 59.697005,1.884e-4 c 3.356573,0 6.199027,1.1639819 8.528116,3.4926954 2.327964,2.3144638 3.49307,5.1501693 3.49307,8.5071172 0,3.357698 -1.143357,6.171654 -3.429321,8.442618 -2.414212,2.371463 -5.278417,3.557193 -8.591865,3.557193 -3.242951,0 -6.056907,-1.178981 -8.442618,-3.536567 -2.356464,-2.356089 -3.535821,-5.176795 -3.535821,-8.463244 0,-3.2710742 1.17973,-6.1064048 3.536569,-8.5067422 2.327963,-2.3290885 5.141918,-3.4930704 8.44187,-3.4930704 z m 0.04275,2.1640912 c -2.727706,0 -5.035795,0.9644848 -6.921267,2.8930797 -1.957468,1.9863439 -2.935454,4.3004326 -2.935454,6.9426417 0,2.671833 0.971236,4.970923 2.91408,6.899892 1.943219,1.943594 4.256934,2.914079 6.942641,2.914079 2.671083,0 5.000172,-0.97761 6.985765,-2.935454 1.885847,-1.828096 2.828582,-4.120435 2.828582,-6.878143 0,-2.7423314 -0.95736,-5.0567953 -2.870954,-6.9426407 C 64.781924,3.1283895 62.467836,2.1642796 59.739753,2.1642796 Z M 54.38259,10.306527 c 0.227622,-1.4714769 0.820486,-2.6107091 1.778222,-3.4173214 0.956608,-0.8069873 2.120215,-1.2108559 3.49232,-1.2108559 1.884722,0 3.385448,0.6074903 4.49993,1.8209713 1.114108,1.213856 1.671348,2.771582 1.671348,4.670927 0,1.843471 -0.578616,3.374947 -1.735098,4.595553 -1.158357,1.220981 -2.657585,1.832973 -4.501054,1.832973 -1.356728,0 -2.527836,-0.406495 -3.513694,-1.222107 -0.986234,-0.814487 -1.578349,-1.97097 -1.778222,-3.470947 h 3.022077 c 0.07088,1.457604 0.94986,2.185468 2.635833,2.185468 0.842239,0 1.521351,-0.36412 2.035469,-1.092734 0.514867,-0.727489 0.772863,-1.699848 0.772863,-2.913705 0,-1.27198 -0.236622,-2.2394647 -0.707614,-2.9039543 -0.471743,-0.6641146 -1.148982,-0.9959844 -2.036218,-0.9959844 -1.600475,0 -2.500461,0.7068639 -2.699583,2.1205917 h 0.878235 l -2.378213,2.378588 -2.378964,-2.378588 z"/>
    </symbol>

    <symbol id="lock" viewBox="0 0 18 24">
      <title>Lock</title>
      <path d="m 9.0001025,0 c -3.870028,0 -7.018645,3.1484948 -7.018645,7.0186451 v 4.0085279 c 0,0.04555 -0.05621,0.122306 -0.10037,0.136984 -0.379545,0.12657 -0.687789,0.236247 -0.969957,0.345022 -0.336494,0.129727 -0.590289,0.502629 -0.590289,0.867455 v 9.210467 c 0,0.362324 0.252155,0.735555 0.586517,0.86807 C 3.4943875,23.480314 6.2171705,24 9.0000615,24 c 2.7828895,0 5.5056735,-0.519809 8.0928265,-1.544952 0.334238,-0.132474 0.58627,-0.505623 0.58627,-0.867947 v -9.210467 c 0,-0.364826 -0.253754,-0.737728 -0.590412,-0.867578 -0.282291,-0.108775 -0.590494,-0.218452 -0.969752,-0.345022 -0.04403,-0.01468 -0.100246,-0.09147 -0.100246,-0.137025 V 7.0185221 C 16.018542,3.1484948 12.87013,0 9.0001025,0 Z m -1.911705,15.181828 c 0,-1.05655 0.855892,-1.91154 1.911582,-1.91154 1.0556065,0 1.9114995,0.854908 1.9114995,1.91154 0,0.70009 -0.394797,1.286237 -0.9557705,1.618508 v 3.160385 c 0,0.528337 -0.427475,0.955771 -0.95577,0.955771 -0.528337,0 -0.955771,-0.427434 -0.955771,-0.955771 v -3.160385 c -0.560932,-0.332271 -0.95577,-0.918418 -0.95577,-1.618508 z M 13.605356,7.0185221 V 10.477147 C 12.095131,10.152175 10.545751,9.9875972 9.0007175,9.9874742 c -1.544338,0 -3.09339,0.1646188 -4.605952,0.4893038 V 7.0185221 c 0,-2.5393864 2.065868,-4.6052132 4.605214,-4.6052132 2.5393045,-4.1e-5 4.6053775,2.0658268 4.6053765,4.6052132 z"/>
    </symbol>
    <symbol id="social-codepen" viewBox="0 0 24 24">
      <title>CodePen</title>
      <path d="M24 8.182l-.018-.087-.017-.05c-.01-.024-.018-.05-.03-.075-.003-.018-.015-.034-.02-.05l-.035-.067-.03-.05-.044-.06-.046-.045-.06-.045-.046-.03-.06-.044-.044-.04-.015-.02L12.58.19c-.347-.232-.796-.232-1.142 0L.453 7.502l-.015.015-.044.035-.06.05-.038.04-.05.056-.037.045-.05.06c-.02.017-.03.03-.03.046l-.05.06-.02.06c-.02.01-.02.04-.03.07l-.01.05C0 8.12 0 8.15 0 8.18v7.497c0 .044.003.09.01.135l.01.046c.005.03.01.06.02.086l.015.05c.01.027.016.053.027.075l.022.05c0 .01.015.04.03.06l.03.04c.015.01.03.04.045.06l.03.04.04.04c.01.013.01.03.03.03l.06.042.04.03.01.014 10.97 7.33c.164.12.375.163.57.163s.39-.06.57-.18l10.99-7.28.014-.01.046-.037.06-.043.048-.036.052-.058.033-.045.04-.06.03-.05.03-.07.016-.052.03-.077.015-.045.03-.08v-7.5c0-.05 0-.095-.016-.14l-.014-.045.044.003zm-11.99 6.28l-3.65-2.44 3.65-2.442 3.65 2.44-3.65 2.44zm-1.034-6.674l-4.473 2.99L2.89 8.362l8.086-5.39V7.79zm-6.33 4.233l-2.582 1.73V10.3l2.582 1.726zm1.857 1.25l4.473 2.99v4.82L2.89 15.69l3.618-2.417v-.004zm6.537 2.99l4.474-2.98 3.613 2.42-8.087 5.39v-4.82zm6.33-4.23l2.583-1.72v3.456l-2.583-1.73zm-1.855-1.24L13.042 7.8V2.97l8.085 5.39-3.612 2.415v.003z"/>
    </symbol>
    <symbol id="social-flickr" viewBox="0 0 24 24">
      <title>Flickr icon</title>
      <path d="M0 12c0 3.074 2.494 5.564 5.565 5.564 3.075 0 5.569-2.49 5.569-5.564S8.641 6.436 5.565 6.436C2.495 6.436 0 8.926 0 12zm12.866 0c0 3.074 2.493 5.564 5.567 5.564C21.496 17.564 24 15.074 24 12s-2.492-5.564-5.564-5.564c-3.075 0-5.57 2.49-5.57 5.564z"/>
    </symbol>
    <symbol id="social-github" viewBox="0 0 24 24">
      <title>GitHub</title>
      <path d="M12 .297c-6.63 0-12 5.373-12 12 0 5.303 3.438 9.8 8.205 11.385.6.113.82-.258.82-.577 0-.285-.01-1.04-.015-2.04-3.338.724-4.042-1.61-4.042-1.61C4.422 18.07 3.633 17.7 3.633 17.7c-1.087-.744.084-.729.084-.729 1.205.084 1.838 1.236 1.838 1.236 1.07 1.835 2.809 1.305 3.495.998.108-.776.417-1.305.76-1.605-2.665-.3-5.466-1.332-5.466-5.93 0-1.31.465-2.38 1.235-3.22-.135-.303-.54-1.523.105-3.176 0 0 1.005-.322 3.3 1.23.96-.267 1.98-.399 3-.405 1.02.006 2.04.138 3 .405 2.28-1.552 3.285-1.23 3.285-1.23.645 1.653.24 2.873.12 3.176.765.84 1.23 1.91 1.23 3.22 0 4.61-2.805 5.625-5.475 5.92.42.36.81 1.096.81 2.22 0 1.606-.015 2.896-.015 3.286 0 .315.21.69.825.57C20.565 22.092 24 17.592 24 12.297c0-6.627-5.373-12-12-12"/>
    </symbol>
    <symbol id="social-gitlab" viewBox="0 0 24 24">
      <title>GitLab</title>
      <path d="M23.955 13.587l-1.342-4.135-2.664-8.189c-.135-.423-.73-.423-.867 0L16.418 9.45H7.582L4.919 1.263C4.783.84 4.185.84 4.05 1.26L1.386 9.449.044 13.587c-.121.375.014.789.331 1.023L12 23.054l11.625-8.443c.318-.235.453-.647.33-1.024"/>
    </symbol>
    <symbol id="social-keybase" viewBox="0 0 24 24">
      <title>Keybase</title>
      <path d="M 10.662171,1e-6 C 10.564971,0.1347986 10.468788,0.2678082 10.373559,0.3994878 10.044144,0.8548635 9.72716,1.2947972 9.428595,1.7283042 9.102104,1.3835425 8.664208,1.1765092 8.186602,1.1474737 L 6.788037,1.0608897 h -0.0019 l -0.0022,-2.462e-4 c -0.03678,-0.00213 -0.0741,-0.00313 -0.110875,-0.00313 -0.98677,0 -1.807443,0.7711622 -1.868521,1.7559632 l -0.08682,1.4009696 -2.47e-4,0.00265 -2.46e-4,0.0024 C 4.657468,5.2471481 5.444587,6.134324 6.471747,6.1972085 l 0.998838,0.06157 C 7.404435,7.0953077 7.542345,7.8795266 7.874642,8.5633437 6.532057,9.1272386 5.291809,9.9665159 4.220587,11.048539 0.912854,14.390094 0.912855,18.051144 0.912855,20.992902 v 1.774721 l 1.305007,-1.384134 c 0.263443,0.929889 0.650261,1.808453 1.141941,2.616508 H 5.058764 C 4.225093,22.884628 3.639265,21.574528 3.379043,20.152081 l 1.916624,-2.032789 -0.98585,3.090792 1.740329,-1.266525 c 3.073601,-2.236734 6.74386,-2.750591 10.908326,-1.527719 1.80574,0.529999 3.561178,0.03627 4.473243,-1.258348 0.0369,-0.05237 0.07161,-0.106001 0.105103,-0.159939 0.09108,0.49495 0.140698,0.993815 0.140698,1.490921 0,1.562578 -0.25815,3.685918 -1.380046,5.511525 h 1.609012 c 0.776445,-1.562906 1.180663,-3.431427 1.180663,-5.511525 0,-2.198049 -0.783825,-4.41998 -2.180703,-6.274182 -0.05156,-0.06846 -0.103375,-0.136649 -0.156566,-0.20395 -0.04695,-0.05946 -0.09463,-0.118376 -0.142863,-0.177015 -0.04677,-0.05676 -0.09449,-0.112747 -0.142381,-0.168597 C 20.308312,11.48204 20.14785,11.302 19.979043,11.128393 18.73271,9.846687 17.258087,8.9154519 15.665498,8.3805677 c -0.01782,-0.00624 -0.0358,-0.011427 -0.05363,-0.017557 0.01106,-0.027034 0.02268,-0.053675 0.03319,-0.081051 0.409977,-1.0687006 0.36708,-2.225468 -0.121216,-3.2572263 C 15.035383,3.992155 14.169359,3.2254123 13.085553,2.8656766 12.430442,2.648292 11.854816,2.5460972 11.374565,2.5607104 11.343205,2.4533314 11.274715,1.9826505 11.871698,0.7116698 Z M 6.673074,2.4669105 c 0.0092,0 0.01854,4.925e-4 0.0279,9.851e-4 l 1.400248,0.086824 c 0.122649,0.00739 0.235872,0.06245 0.317473,0.1548881 0.08209,0.092766 0.122845,0.211725 0.114964,0.3350298 l -0.0063,0.1012552 C 8.206031,3.7122985 7.94067,4.2797079 7.753398,4.8643361 L 6.558064,4.7902606 C 6.304229,4.7746623 6.109648,4.5555426 6.124425,4.3015445 L 6.211485,2.9008149 C 6.226595,2.6563381 6.429204,2.4669348 6.673024,2.4669348 Z m 3.452519,0.7547204 c 0.02512,0.049584 0.05292,0.09737 0.08346,0.1433436 0.264343,0.3986483 0.712629,0.6248904 1.19846,0.6058442 0.2164,-0.00821 0.606859,0.024623 1.234057,0.2328142 0.714711,0.2370871 1.285747,0.7427659 1.608049,1.4238185 0.321972,0.680395 0.350356,1.4437562 0.07961,2.1494358 -0.171271,0.4461918 -0.455326,0.8216833 -0.80643,1.1104343 l -0.407424,-0.5017037 -0.0026,-0.00336 C 12.833439,8.041074 12.420439,7.8454386 11.979922,7.8454386 c -0.3356,0 -0.663954,0.1168867 -0.92452,0.3290169 -0.332878,0.2719582 -0.513549,0.660456 -0.534654,1.0584848 C 9.321805,8.6914829 8.719737,7.5892596 8.893458,6.1924139 9.018241,5.1895531 9.475077,4.2415726 10.125591,3.2216359 Z m -3.187237,0.00842 -0.05171,0.8333657 0.833608,0.051229 0.05171,-0.8331268 z M 11.979924,8.99868 c 0.08981,0 0.178864,0.039044 0.240269,0.1142417 l 2.961159,3.6444463 c 0.108364,0.132829 0.08865,0.328162 -0.04401,0.436526 -0.03825,0.0312 -0.08144,0.05147 -0.126267,0.06181 -0.02299,0.0054 -0.04651,0.0082 -0.06999,0.0082 -0.08997,0 -0.179105,-0.03904 -0.24051,-0.114242 l -0.294868,-0.363171 -1.047181,0.854531 c -0.04482,0.03678 -0.09887,0.0546 -0.152723,0.0546 -0.06994,0 -0.139338,-0.03054 -0.187116,-0.08899 l -0.474045,-0.58059 c -0.08341,-0.102125 -0.06821,-0.252585 0.03391,-0.335993 l 1.051991,-0.858861 -0.429792,-0.530083 -0.520463,0.425221 c -0.04269,0.03464 -0.09389,0.05171 -0.144787,0.05171 -0.06633,0 -0.132181,-0.02885 -0.177497,-0.08418 l -0.108228,-0.132761 c -0.08357,-0.102289 -0.06862,-0.253142 0.03367,-0.336714 l 0.51445,-0.41993 -1.058483,-1.2992347 c -0.108364,-0.132664 -0.08865,-0.3279209 0.04401,-0.436285 0.05796,-0.047122 0.127537,-0.070229 0.196496,-0.070229 z m 2.839459,0.59911 c 0.198099,0.056326 0.394807,0.1180329 0.58901,0.1883192 0.202096,0.075594 0.403446,0.1569593 0.603439,0.2458008 1.005581,0.446802 1.955707,1.101815 2.774282,1.900509 0.02709,0.02651 0.05443,0.05273 0.08129,0.07961 0.05976,0.05964 0.118755,0.119931 0.177016,0.181104 0.03488,0.03668 0.06892,0.07398 0.103178,0.111115 0.08183,0.08858 0.16196,0.178596 0.240511,0.270093 0.04216,0.04916 0.0842,0.0983 0.125306,0.148154 0.0452,0.05479 0.08975,0.110212 0.133722,0.165951 0.03599,0.0456 0.0712,0.09169 0.106306,0.137812 0.04124,0.05424 0.08285,0.108244 0.122901,0.163308 0.835552,1.148656 0.986367,2.328297 0.403335,3.15597 -0.567598,0.805506 -1.687872,1.080537 -2.923879,0.717682 -3.884034,-1.140451 -7.396321,-0.902673 -10.467952,0.70325 l 1.634505,-5.124062 -5.289534,5.609893 c 0.09524,-3.759564 2.45013,-6.965509 5.753959,-8.3105794 0.471226,0.3738244 1.036175,0.6583674 1.677316,0.8388984 0.16017,0.04512 0.32108,0.07815 0.482222,0.102938 -0.185659,0.45689 -0.1234,0.998732 0.209965,1.406983 l 0.07263,0.08899 c -0.170592,0.45004 -0.103517,0.976902 0.222231,1.375716 l 0.474285,0.580831 c 0.26582,0.32575 0.659558,0.512767 1.080371,0.512767 0.320496,0 0.633938,-0.111573 0.88219,-0.314346 l 0.284042,-0.231851 c 0.177651,0.07471 0.370544,0.114482 0.569047,0.114482 0.110664,0 0.221386,-0.01256 0.329257,-0.03752 0.217385,-0.05008 0.423575,-0.151259 0.596465,-0.29246 0.624735,-0.510462 0.71801,-1.434107 0.208042,-2.059006 L 14.410277,9.9794821 c 0.144279,-0.1177212 0.281179,-0.2449408 0.409106,-0.3816892 z"/>
      <path d="m 10.44724,21.370982 c 0,0.526552 -0.426724,0.953276 -0.953276,0.953276 -0.526551,0 -0.953276,-0.426724 -0.953276,-0.953276 0,-0.526551 0.426725,-0.953275 0.953276,-0.953275 0.526552,0 0.953276,0.426724 0.953276,0.953275"/>
      <path d="m 16.363544,21.370982 c 0,0.526552 -0.426725,0.953276 -0.953276,0.953276 -0.526551,0 -0.953277,-0.426724 -0.953277,-0.953276 0,-0.526551 0.426726,-0.953275 0.953277,-0.953275 0.526551,0 0.953276,0.426724 0.953276,0.953275"/>
    </symbol>
    <symbol id="social-last-fm" viewBox="0 0 24 24">
      <title>Last.fm</title>
      <path d="M10.599 17.211l-.881-2.393s-1.433 1.596-3.579 1.596c-1.9 0-3.249-1.652-3.249-4.296 0-3.385 1.708-4.596 3.388-4.596 2.418 0 3.184 1.568 3.845 3.578l.871 2.751c.871 2.672 2.523 4.818 7.285 4.818 3.41 0 5.722-1.045 5.722-3.801 0-2.227-1.276-3.383-3.635-3.935l-1.757-.384c-1.217-.274-1.577-.771-1.577-1.597 0-.936.736-1.487 1.952-1.487 1.323 0 2.028.495 2.147 1.679l2.749-.33c-.225-2.479-1.937-3.494-4.745-3.494-2.479 0-4.897.936-4.897 3.934 0 1.873.902 3.058 3.185 3.605l1.862.443c1.397.33 1.863.916 1.863 1.713 0 1.021-.992 1.441-2.869 1.441-2.779 0-3.936-1.457-4.597-3.469l-.901-2.75c-1.156-3.574-3.004-4.896-6.669-4.896C2.147 5.327 0 7.879 0 12.235c0 4.179 2.147 6.445 6.003 6.445 3.108 0 4.596-1.457 4.596-1.457v-.012z"/>
    </symbol>
    <symbol id="social-mastodon" viewBox="0 0 24 24">
      <title>Mastodon</title>
      <path d="M 11.964615,-4.808365e-4 C 8.8963315,0.02460437 5.9449095,0.35677382 4.2248915,1.1466991 c 0,0 -3.41123199,1.526011 -3.41123199,6.7323542 0,1.1921937 -0.02321,2.6177747 0.01455,4.1294817 0.123874,5.09152 0.93345399,10.109434 5.64093799,11.355418 2.170517,0.574503 4.0340225,0.694676 5.5348665,0.612179 2.721745,-0.150899 4.249695,-0.971203 4.249695,-0.971203 l -0.08991,-1.974732 c 0,0 -1.944927,0.613173 -4.129279,0.538435 -2.1641805,-0.07422 -4.4488095,-0.233283 -4.7988385,-2.890375 -0.03233,-0.233396 -0.04849,-0.483019 -0.04849,-0.745121 0,0 2.124428,0.51933 4.8168185,0.642687 1.646314,0.07551 3.190145,-0.09656 4.758229,-0.283663 3.007121,-0.35908 5.625421,-2.211821 5.954503,-3.904814 0.518514,-2.666919 0.475802,-6.5082927 0.475802,-6.5082927 0,-5.2063432 -3.41103,-6.7323542 -3.41103,-6.7323542 C 18.061629,0.35677382 15.108259,0.02460437 12.039978,-4.808365e-4 Z M 8.4921645,4.0675818 c 1.278052,0 2.2457975,0.4912862 2.8857285,1.4738762 l 0.622079,1.0427251 0.622281,-1.0427251 c 0.639801,-0.98259 1.607545,-1.4738762 2.885727,-1.4738762 1.104524,0 1.994564,0.3882951 2.674192,1.1457648 0.65881,0.7574697 0.986761,1.781187 0.986761,3.0695837 V 14.586961 H 16.671322 V 8.4684025 c 0,-1.2898201 -0.542516,-1.9446287 -1.628033,-1.9446287 -1.200211,0 -1.801787,0.7767113 -1.801787,2.3123395 v 3.3490037 h -2.48286 V 8.8361133 c 0,-1.5356282 -0.601576,-2.3123395 -1.8017875,-2.3123395 -1.085517,0 -1.628235,0.6548086 -1.628235,1.9446287 v 6.1185585 h -2.49761 V 8.2829303 c 0,-1.2883967 0.328023,-2.312114 0.986962,-3.0695837 0.679499,-0.7574697 1.569539,-1.1457648 2.674193,-1.1457648 z"/>
    </symbol>
    <symbol id="social-reddit" viewBox="0 0 24 24">
      <title>Reddit</title>
      <path d="m 24,11.999998 q 0,0.776786 -0.395089,1.412946 -0.39509,0.636161 -1.064732,0.970982 0.160714,0.616072 0.160714,1.285715 0,2.075893 -1.426339,3.84375 -1.42634,1.767857 -3.890625,2.79241 -2.464286,1.024554 -5.357143,1.024554 -2.8928574,0 -5.3504467,-1.024554 -2.4575893,-1.024553 -3.8839286,-2.79241 -1.4263393,-1.767857 -1.4263393,-3.84375 0,-0.629465 0.1473215,-1.258929 Q 0.83035714,14.075891 0.41517857,13.426337 0,12.776784 0,11.999998 0,10.901784 0.77678571,10.118301 1.5535714,9.334819 2.6651786,9.334819 q 1.1383928,0 1.9419643,0.84375 2.9196428,-2.035714 6.8973211,-2.169643 l 1.553572,-6.977678 q 0.04018,-0.174107 0.200893,-0.28125 0.160714,-0.107143 0.348214,-0.06696 l 4.941964,1.084821 q 0.241072,-0.495536 0.723214,-0.796875 0.482143,-0.301339 1.058036,-0.301339 0.830357,0 1.419643,0.582589 0.589286,0.582589 0.589286,1.412946 0,0.830358 -0.589286,1.419643 -0.589286,0.589286 -1.419643,0.589286 -0.830357,0 -1.412946,-0.582589 -0.58259,-0.58259 -0.58259,-1.412947 L 13.861607,1.687502 12.46875,8.00893 q 4.017857,0.120536 6.950893,2.142858 0.776786,-0.816965 1.915178,-0.816965 1.111608,0 1.888393,0.783482 Q 24,10.901784 24,11.999998 Z M 5.5982143,14.665176 q 0,0.830358 0.5825893,1.419643 0.5825893,0.589286 1.4129464,0.589286 0.8303571,0 1.4196429,-0.589286 0.5892857,-0.589285 0.5892857,-1.419643 0,-0.830357 -0.5892857,-1.412946 -0.5892858,-0.582589 -1.4196429,-0.582589 -0.8169643,0 -1.40625,0.589285 -0.5892857,0.589286 -0.5892857,1.40625 z m 10.8482147,4.754465 q 0.147321,-0.147322 0.147321,-0.348215 0,-0.200892 -0.147321,-0.348214 -0.133929,-0.133928 -0.334822,-0.133928 -0.200893,0 -0.348214,0.133928 -0.549107,0.5625 -1.620536,0.830357 Q 13.071429,19.821426 12,19.821426 q -1.071429,0 -2.1428571,-0.267857 Q 8.7857143,19.285712 8.2366071,18.723212 8.0892857,18.589284 7.8883929,18.589284 7.6875,18.589284 7.5535714,18.723212 7.40625,18.857141 7.40625,19.06473 q 0,0.207589 0.1473214,0.354911 0.5758929,0.575893 1.5870536,0.910714 1.011161,0.334821 1.640625,0.395089 0.629464,0.06027 1.21875,0.06027 0.589286,0 1.21875,-0.06027 0.629464,-0.06027 1.640625,-0.395089 1.011161,-0.334821 1.587054,-0.910714 z m -0.04018,-2.745536 q 0.830357,0 1.412946,-0.589286 0.58259,-0.589285 0.58259,-1.419643 0,-0.816964 -0.589286,-1.40625 -0.589286,-0.589285 -1.40625,-0.589285 -0.830357,0 -1.419643,0.582589 -0.589286,0.582589 -0.589286,1.412946 0,0.830358 0.589286,1.419643 0.589286,0.589286 1.419643,0.589286 z"/>
    </symbol>
    <symbol id="social-stack-overflow" viewBox="0 0 24 24">
      <title>Stack Overflow</title>
      <path d="M18.986 21.865v-6.404h2.134V24H1.844v-8.539h2.13v6.404h15.012zM6.111 19.731H16.85v-2.137H6.111v2.137zm.259-4.852l10.48 2.189.451-2.07-10.478-2.187-.453 2.068zm1.359-5.056l9.705 4.53.903-1.95-9.706-4.53-.902 1.936v.014zm2.715-4.785l8.217 6.855 1.359-1.62-8.216-6.853-1.35 1.617-.01.001zM15.751 0l-1.746 1.294 6.405 8.604 1.746-1.294L15.749 0h.002z"/>
    </symbol>
    <symbol id="social-steam" viewBox="0 0 24 24">
      <title>Steam</title>
      <path d="M11.979 0C5.678 0 .511 4.86.022 11.037l6.432 2.658c.545-.371 1.203-.59 1.912-.59.063 0 .125.004.188.006l2.861-4.142V8.91c0-2.495 2.028-4.524 4.524-4.524 2.494 0 4.524 2.031 4.524 4.527s-2.03 4.525-4.524 4.525h-.105l-4.076 2.911c0 .052.004.105.004.159 0 1.875-1.515 3.396-3.39 3.396-1.635 0-3.016-1.173-3.331-2.727L.436 15.27C1.862 20.307 6.486 24 11.979 24c6.627 0 11.999-5.373 11.999-12S18.605 0 11.979 0zM7.54 18.21l-1.473-.61c.262.543.714.999 1.314 1.25 1.297.539 2.793-.076 3.332-1.375.263-.63.264-1.319.005-1.949s-.75-1.121-1.377-1.383c-.624-.26-1.29-.249-1.878-.03l1.523.63c.956.4 1.409 1.5 1.009 2.455-.397.957-1.497 1.41-2.454 1.012H7.54zm11.415-9.303c0-1.662-1.353-3.015-3.015-3.015-1.665 0-3.015 1.353-3.015 3.015 0 1.665 1.35 3.015 3.015 3.015 1.663 0 3.015-1.35 3.015-3.015zm-5.273-.005c0-1.252 1.013-2.266 2.265-2.266 1.249 0 2.266 1.014 2.266 2.266 0 1.251-1.017 2.265-2.266 2.265-1.253 0-2.265-1.014-2.265-2.265z"/>
    </symbol>
    <symbol id="social-twitter" viewBox="0 0 24 24">
      <title>Twitter icon</title>
      <path d="M23.954 4.569c-.885.389-1.83.654-2.825.775 1.014-.611 1.794-1.574 2.163-2.723-.951.555-2.005.959-3.127 1.184-.896-.959-2.173-1.559-3.591-1.559-2.717 0-4.92 2.203-4.92 4.917 0 .39.045.765.127 1.124C7.691 8.094 4.066 6.13 1.64 3.161c-.427.722-.666 1.561-.666 2.475 0 1.71.87 3.213 2.188 4.096-.807-.026-1.566-.248-2.228-.616v.061c0 2.385 1.693 4.374 3.946 4.827-.413.111-.849.171-1.296.171-.314 0-.615-.03-.916-.086.631 1.953 2.445 3.377 4.604 3.417-1.68 1.319-3.809 2.105-6.102 2.105-.39 0-.779-.023-1.17-.067 2.189 1.394 4.768 2.209 7.557 2.209 9.054 0 13.999-7.496 13.999-13.986 0-.209 0-.42-.015-.63.961-.689 1.8-1.56 2.46-2.548l-.047-.02z"/>
    </symbol>
  </defs>
</svg>
